<svg width="99" height="41" viewBox="0 0 99 41" fill="none" xmlns="http://www.w3.org/2000/svg">
<path d="M12.0885 27.483V40.9706H6.73323V27.483H5.39442V40.9706H0.0391846V22.088H18.7825V40.9706H13.4273V27.483H12.0885Z" fill="#EA4500"/>
<path d="M26.6097 35.5756V27.483H25.2709V35.5756H26.6097ZM31.9649 40.9706H19.9157V22.088H31.9649V40.9706Z" fill="#EA4500"/>
<path d="M45.1474 40.9706H39.7922V27.483H38.4533V40.9706H33.0981V22.088H45.1474V40.9706Z" fill="#EA4500"/>
<path d="M46.2806 40.9706V35.5756H52.9746V34.2268H46.2806V22.088H58.3298V27.483H51.6358V28.8318H58.3298V40.9706H46.2806Z" fill="#EA4500"/>
<path d="M71.5123 22.088V27.483H68.1653V40.9706H62.81V27.483H59.463V22.088H71.5123Z" fill="#EA4500"/>
<path d="M84.6947 22.088V27.483H78.0007V28.8318H84.6947V34.2268H78.0007V35.5756H84.6947V40.9706H72.6455V22.088H84.6947Z" fill="#EA4500"/>
<path d="M92.9738 27.483H91.1831V29.0649H92.9738V27.483ZM97.8772 22.088V29.5062L95.1996 32.2037H97.8772V40.9706H92.5219V34.2268H91.1831V40.9706H85.8279V22.088H97.8772Z" fill="#EA4500"/>
<path d="M0 20.9225V0.205933H5.91469V20.9225H0Z" fill="white"/>
<path d="M20.7014 20.9225H14.7867V6.12495H13.308V20.9225H7.39336V0.205933H20.7014V20.9225Z" fill="white"/>
<path d="M42.0307 6.12495H40.0861V7.83782H42.0307V6.12495ZM47.4795 0.205933V13.5237H40.0861V20.9225H34.1714V0.205933H47.4795Z" fill="white"/>
<path d="M48.9581 20.9225V0.205933H54.8728V20.9225H48.9581Z" fill="white"/>
<path d="M64.2107 6.12495H62.2662V7.83782H64.2107V6.12495ZM69.6595 0.205933V8.34458L66.7022 11.3041H69.6595V20.9225H63.7448V13.5237H62.2662V20.9225H56.3515V0.205933H69.6595Z" fill="white"/>
<path d="M84.4462 0.205933V6.12495H77.0529V7.6047H84.4462V13.5237H77.0529V15.0035H84.4462V20.9225H71.1382V0.205933H84.4462Z" fill="white"/>
<path d="M91.8396 6.12495V12.044L93.3183 10.5642V6.12495H91.8396ZM85.9249 20.9225V0.205933H99V16.5242L95.2756 20.9225H85.9249Z" fill="white"/>
<rect x="20.5385" y="13.4626" width="7.68706" height="1.63183" fill="white"/>
<rect x="26.8279" y="6.23608" width="7.68706" height="1.63183" fill="white"/>
</svg>
